Tugas MDS - MongoDB
…
dplyr, tidyverse: manipulasi data

stringr: pemrosesan string

mongolite: koneksi ke MongoDB Atlas dan lokal

tm, wordcloud, RColorBrewer: untuk membuat word cloud dari judul film

Membaca dan Menampilkan Data

df <- read_xlsx("Data_20202025.xlsx")
df

# A tibble: 645 × 6
   Title                                    Year  Duration Rating Vote  Category
   <chr>                                    <chr> <chr>    <chr>  <chr> <chr>   
 1 Final Destination: Bloodlines            2025  1h 50m   7.1    28K   R       
 2 Nonnas                                   2025  1h 51m   6.9    17K   PG      
 3 Sinners                                  2025  2h 17m   8.1    104K  R       
 4 Thunderbolts*                            2025  2h 7m    7.6    95K   PG-13   
 5 Mission: Impossible - The Final Reckoni… 2025  2h 49m   7.6    19K   PG-13   
 6 A Minecraft Movie                        2025  1h 41m   5.8    92K   PG      
 7 Hurry Up Tomorrow                        2025  1h 45m   5.2    5.8K  R       
 8 Snow White                               2025  1h 49m   1.7    358K  PG      
 9 A Working Man                            2025  1h 56m   5.7    39K   R       
10 Warfare                                  2025  1h 35m   7.4    38K   R       
# ℹ 635 more rows
…
